{
  "linkOptions": {
    "protectionPassword": "",
    "allowEdition": false,
    "expirationDate": ""
  },
  "error": false,
  "pickerStillOpen": false,
  "pathList": [
    "/file_sample.jpg"
  ],
  "shareLinks": [
    {
      "path": "/file_sample.jpg",
      "data": {
        "id": "82",
        "share_type": 3,
        "uid_owner": "nc_user",
        "displayname_owner": "nc_user",
        "permissions": 17,
        "can_edit": true,
        "can_delete": true,
        "stime": 1687379636,
        "parent": null,
        "expiration": null,
        "token": "abcdefghiJKLMNo",
        "uid_file_owner": "nc_user",
        "note": "",
        "label": "file sample",
        "displayname_file_owner": "nc_user",
        "path": "/file_sample.jpg",
        "item_type": "file",
        "mimetype": "image/jpeg",
        "has_preview": true,
        "storage_id": "home::nc_user",
        "storage": 3,
        "item_source": 2,
        "file_source": 2,
        "file_parent": 1,
        "file_target": "/file_sample.jpg",
        "share_with": null,
        "share_with_displayname": "(Shared link)",
        "password": null,
        "send_password_by_talk": false,
        "url": "https://nextcloud.example.org/s/abcdefghiJKLMNo",
        "mail_send": 1,
        "hide_download": 0,
        "attributes": null
      }
    }
  ]
}
